localcopy/localcopy.sim/sim_1/behav/xsim/arithmetic_bcd_to_fp_tb.vcd
$date
   Sun Oct 19 21:45:45 2025
$end
$version
  2018.2
$end
$timescale
  1ps
$end
$scope module tb_arithmetic_bcd_to_fp_input_system $end
$var reg 1 ! clk $end
$var reg 1 " reset $end
$var reg 1 # keypad_btn_pressed $end
$var reg 4 $ selected_keypad_value [3:0] $end
$var reg 1 % is_active_mode $end
$var reg 1 & enable_negative $end
$var reg 1 ' enable_backspace $end
$var wire 1 ( has_decimal $end
$var wire 1 ) has_negative $end
$var wire 4 * input_index [3:0] $end
$var wire 32 + bcd_value [31:0] $end
$var wire 4 , decimal_pos [3:0] $end
$var wire 32 - fp_value [31:0] $end
$var wire 1 . input_complete $end
$var integer 32 / test_num $end
$var integer 32 0 pass_count $end
$var integer 32 1 fail_count $end
$var parameter 4 2 KEY_0 [3:0] $end
$var parameter 4 3 KEY_1 [3:0] $end
$var parameter 4 4 KEY_2 [3:0] $end
$var parameter 4 5 KEY_3 [3:0] $end
$var parameter 4 6 KEY_4 [3:0] $end
$var parameter 4 7 KEY_5 [3:0] $end
$var parameter 4 8 KEY_6 [3:0] $end
$var parameter 4 9 KEY_7 [3:0] $end
$var parameter 4 : KEY_8 [3:0] $end
$var parameter 4 ; KEY_9 [3:0] $end
$var parameter 4 < KEY_DECIMAL [3:0] $end
$var parameter 4 = KEY_SPECIAL [3:0] $end
$var parameter 4 > KEY_ENTER [3:0] $end
$scope module dut $end
$var wire 1 ? clk $end
$var wire 1 @ reset $end
$var wire 1 A keypad_btn_pressed $end
$var wire 4 B selected_keypad_value [3:0] $end
$var wire 1 C is_active_mode $end
$var wire 1 D enable_negative $end
$var wire 1 E enable_backspace $end
$var wire 1 ( has_decimal $end
$var wire 1 ) has_negative $end
$var wire 4 * input_index [3:0] $end
$var wire 32 + bcd_value [31:0] $end
$var wire 4 , decimal_pos [3:0] $end
$var reg 32 F fp_value [31:0] $end
$var reg 1 G input_complete $end
$var wire 1 H system_enable $end
$var reg 4 I internal_key_code [3:0] $end
$var reg 1 J internal_key_valid $end
$var wire 32 K event_digit_data [31:0] $end
$var wire 4 L event_char_count [3:0] $end
$var wire 1 M event_sign_flag $end
$var wire 1 N event_dot_flag $end
$var wire 4 O event_dot_pos [3:0] $end
$var wire 1 P event_submission $end
$var wire 32 Q eval_result [31:0] $end
$var wire 1 R eval_complete $end
$var parameter 32 S DIGIT_CAPACITY [31:0] $end
$var parameter 32 T FIXED_FRAC_BITS [31:0] $end
$var parameter 4 U EXT_DECIMAL [3:0] $end
$var parameter 4 V EXT_SPECIAL [3:0] $end
$var parameter 4 W EXT_CHECKMARK [3:0] $end
$var parameter 4 X INT_DECIMAL [3:0] $end
$var parameter 4 Y INT_BACKSPACE [3:0] $end
$var parameter 4 Z INT_ENTER [3:0] $end
$var parameter 4 [ INT_NEGATIVE [3:0] $end
$scope module event_dispatcher $end
$var wire 1 ? clk $end
$var wire 1 \ rst_n $end
$var wire 1 C active $end
$var wire 1 ] cmd_valid $end
$var wire 4 ^ cmd_type [3:0] $end
$var wire 1 E enable_backspace_key $end
$var wire 1 D enable_negative_key $end
$var reg 32 _ packed_digits [31:0] $end
$var reg 4 ` total_chars [3:0] $end
$var reg 1 a sign_present $end
$var reg 1 b dot_present $end
$var reg 4 c dot_location [3:0] $end
$var reg 1 d submit_ready $end
$var reg 4 e write_ptr [3:0] $end
$var integer 32 f j $end
$var parameter 32 g BUFFER_SIZE [31:0] $end
$var parameter 3 h TYPE_DIGIT [2:0] $end
$var parameter 3 i TYPE_DOT [2:0] $end
$var parameter 3 j TYPE_SIGN [2:0] $end
$var parameter 4 k KEY_DOT [3:0] $end
$var parameter 4 l KEY_BACKSPACE [3:0] $end
$var parameter 4 m KEY_ENTER [3:0] $end
$var parameter 4 n KEY_NEGATIVE [3:0] $end
$upscope $end
$scope module event_processor $end
$var wire 1 ? clk $end
$var wire 1 H rst_n $end
$var wire 1 P trigger $end
$var wire 32 K digit_stream [31:0] $end
$var wire 4 L num_chars [3:0] $end
$var wire 1 M has_sign $end
$var wire 1 N has_dot $end
$var wire 4 O dot_idx [3:0] $end
$var reg 32 o result_fp [31:0] $end
$var reg 1 p ready $end
$var reg 2 q phase [1:0] $end
$var reg 32 r value_accum [31:0] $end
$var reg 4 s position [3:0] $end
$var reg 4 t scale_factor [3:0] $end
$var reg 32 u divisor [31:0] $end
$var reg 32 v temp_result [31:0] $end
$var wire 4 w current_digit [3:0] $end
$var parameter 32 x FRAC_WIDTH [31:0] $end
$var parameter 32 y MAX_VALUE [31:0] $end
$var parameter 2 z WAIT [1:0] $end
$var parameter 2 { EVALUATE [1:0] $end
$var parameter 2 | FINALIZE [1:0] $end
$upscope $end
$upscope $end
$scope task press_key $end
$var reg 4 } key [3:0] $end
$upscope $end
$scope task wait_for_complete $end
$var integer 32 ~ i $end
$upscope $end
$scope function fp_to_real $end
$var real 32 !! fp_to_real $end
$var reg 32 "! fp_val [31:0] $end
$var real 32 #! result $end
$upscope $end
$scope task check_result $end
$var real 32 $! expected $end
$var real 32 %! tolerance $end
$var real 32 &! actual $end
$var real 32 '! error $end
$upscope $end
$upscope $end
$enddefinitions $end
#0
$dumpvars
0!
r0 !!
1"
bx "!
0#
r0 #!
b0 $
r0 $!
1%
r0 %!
0&
r0 &!
0'
r0 '!
0(
0)
b0 *
b0 +
b1111 ,
b0 -
0.
b0 /
b0 0
b0 1
b0 2
b1 3
b10 4
b11 5
b100 6
b101 7
b110 8
b111 9
b1000 :
b1001 ;
b1010 <
b1011 =
b1100 >
0?
1@
0A
b0 B
1C
0D
0E
b0 F
0G
0H
b0 I
0J
b0 K
b0 L
0M
0N
b1111 O
0P
b0 Q
0R
b1000 S
b10000 T
b1010 U
b1011 V
b1100 W
b1010 X
b1011 Y
b1100 Z
b1101 [
0\
0]
b0 ^
b0 _
b0 `
0a
0b
b1111 c
0d
b0 e
b1000 f
b1000 g
b0 h
b1 i
b10 j
b1010 k
b1011 l
b1100 m
b1101 n
b0 o
0p
b0 q
b0 r
b0 s
b0 t
b1 u
b0 v
b0 w
b10000 x
b111111111111111 y
b0 z
b1 {
b10 |
bx }
bx ~
$end
#5000
1!
1?
b1000 f
#10000
0!
0?
#15000
1!
1?
b1000 f
#20000
0!
0?
#25000
1!
1?
b1000 f
#30000
0!
0?
#35000
1!
1?
b1000 f
#40000
0!
0?
#45000
1!
0"
1?
0@
1H
1\
b1000 f
#50000
0!
0?
#55000
1!
1?
#60000
0!
0?
#65000
1!
1?
#70000
0!
0?
#75000
1!
1?
#80000
0!
0?
#85000
1!
1?
#90000
0!
0?
#95000
1!
b1 /
1?
b1 }
#100000
0!
0?
#105000
1!
1#
b1 $
1?
1A
b1 B
b1 I
1J
1]
b1 ^
#110000
0!
0?
#115000
1!
0#
b1 *
b1 +
1?
0A
b1 I
0J
b1 K
b1 L
0]
b1 _
b1 `
b1 e
b1000 f
b1 w
#120000
0!
0?
#125000
1!
1?
b10 }
#130000
0!
0?
#135000
1!
1#
b10 $
1?
1A
b10 B
b10 I
1J
1]
b10 ^
#140000
0!
0?
#145000
1!
0#
b10 *
b100001 +
1?
0A
b10 I
0J
b100001 K
b10 L
0]
b100001 _
b10 `
b10 e
b1000 f
#150000
0!
0?
#155000
1!
1?
b1100 }
#160000
0!
0?
#165000
1!
1#
b1100 $
1?
1A
b1100 B
b1100 I
1J
1]
b1100 ^
#170000
0!
0?
#175000
1!
0#
1?
0A
b1100 I
0J
1P
0]
1d
#180000
0!
0?
#185000
1!
1?
b1 q
b0 ~
#190000
0!
0?
#195000
1!
1?
b1 r
b1 s
b10 w
b1 ~
#200000
0!
0?
#205000
1!
1?
b1100 r
b10 s
b0 w
b10 ~
#210000
0!
0?
#215000
1!
1?
b10 q
b11000000000000000000 r
b11 ~
#220000
0!
0?
#225000
1!
1?
b11000000000000000000 Q
1R
b11000000000000000000 o
1p
b0 q
b11000000000000000000 v
b100 ~
#230000
0!
0?
#235000
1!
b11000000000000000000 -
1.
1?
b11000000000000000000 F
1G
0R
0p
b1 q
b0 r
b0 s
b1 w
b101 ~
#240000
0!
0?
#245000
1!
r12 !!
1"
b11000000000000000000 "!
r12 #!
r12 $!
r0.01 %!
r12 &!
b0 *
b0 +
b0 -
0.
b1 0
1?
1@
b0 F
0G
0H
b0 K
b0 L
0P
b0 Q
0\
b0 _
b0 `
0d
b0 e
b1000 f
b0 o
b0 q
b0 r
b0 s
b0 v
b0 w
b110011 ~
#250000
0!
0?
#255000
1!
1?
b1000 f
#260000
0!
0?
#265000
1!
1?
b1000 f
#270000
0!
0?
#275000
1!
1?
b1000 f
#280000
0!
0?
#285000
1!
1?
b1000 f
#290000
0!
0?
#295000
1!
0"
1?
0@
1H
1\
b1000 f
#300000
0!
0?
#305000
1!
1?
#310000
0!
0?
#315000
1!
1?
#320000
0!
0?
#325000
1!
1?
#330000
0!
0?
#335000
1!
1?
#340000
0!
0?
#345000
1!
b10 /
1?
b11 }
#350000
0!
0?
#355000
1!
1#
b11 $
1?
1A
b11 B
b11 I
1J
1]
b11 ^
#360000
0!
0?
#365000
1!
0#
b1 *
b11 +
1?
0A
b11 I
0J
b11 K
b1 L
0]
b11 _
b1 `
b1 e
b1000 f
b11 w
#370000
0!
0?
#375000
1!
1?
b1010 }
#380000
0!
0?
#385000
1!
1#
b1010 $
1?
1A
b1010 B
b1010 I
1J
1]
b1010 ^
#390000
0!
0?
#395000
1!
0#
1(
b10 *
b10100011 +
b1 ,
1?
0A
b1010 I
0J
b10100011 K
b10 L
1N
b1 O
0]
b10100011 _
b10 `
1b
b1 c
b10 e
b1000 f
#400000
0!
0?
#405000
1!
1?
b1 }
#410000
0!
0?
#415000
1!
1#
b1 $
1?
1A
b1 B
b1 I
1J
1]
b1 ^
#420000
0!
0?
#425000
1!
0#
b11 *
b110100011 +
1?
0A
b1 I
0J
b110100011 K
b11 L
0]
b110100011 _
b11 `
b11 e
b1000 f
#430000
0!
0?
#435000
1!
1?
b100 }
#440000
0!
0?
#445000
1!
1#
b100 $
1?
1A
b100 B
b100 I
1J
1]
b100 ^
#450000
0!
0?
#455000
1!
0#
b100 *
b100000110100011 +
1?
0A
b100 I
0J
b100000110100011 K
b100 L
0]
b100000110100011 _
b100 `
b100 e
b1000 f
#460000
0!
0?
#465000
1!
1?
b1100 }
#470000
0!
0?
#475000
1!
1#
b1100 $
1?
1A
b1100 B
b1100 I
1J
1]
b1100 ^
#480000
0!
0?
#485000
1!
0#
1?
0A
b1100 I
0J
1P
0]
1d
#490000
0!
0?
#495000
1!
1?
b1 q
b0 ~
#500000
0!
0?
#505000
1!
1?
b11 r
b1 s
b1010 w
b1 ~
#510000
0!
0?
#515000
1!
1?
b110000000000000000 r
b10 s
b1010 u
b1 w
b10 ~
#520000
0!
0?
#525000
1!
1?
b110001100110011001 r
b11 s
b1100100 u
b100 w
b11 ~
#530000
0!
0?
#535000
1!
1?
b110010001111010110 r
b100 s
b1111101000 u
b0 w
b100 ~
#540000
0!
0?
#545000
1!
1?
b10 q
b101 ~
#550000
0!
0?
#555000
1!
1?
b110010001111010110 Q
1R
b110010001111010110 o
1p
b0 q
b110010001111010110 v
b110 ~
#560000
0!
0?
#565000
1!
b110010001111010110 -
1.
1?
b110010001111010110 F
1G
0R
0p
b1 q
b0 r
b0 s
b1 u
b11 w
b111 ~
#570000
0!
0?
#575000
1!
r3.139984130859375 !!
1"
b110010001111010110 "!
r3.139984130859375 #!
r3.14 $!
r3.139984130859375 &!
r1.586914062512434e-05 '!
0(
b0 *
b0 +
b1111 ,
b0 -
0.
b10 0
1?
1@
b0 F
0G
0H
b0 K
b0 L
0N
b1111 O
0P
b0 Q
0\
b0 _
b0 `
0b
b1111 c
0d
b0 e
b1000 f
b0 o
b0 q
b0 r
b0 s
b0 v
b0 w
b110011 ~
#580000
0!
0?
#585000
1!
1?
b1000 f
#590000
0!
0?
#595000
1!
1?
b1000 f
#600000
0!
0?
#605000
1!
1?
b1000 f
#610000
0!
0?
#615000
1!
1?
b1000 f
#620000
0!
0?
#625000
1!
0"
1?
0@
1H
1\
b1000 f
#630000
0!
0?
#635000
1!
1?
#640000
0!
0?
#645000
1!
1?
#650000
0!
0?
#655000
1!
1?
#660000
0!
0?
#665000
1!
1?
#670000
0!
0?
#675000
1!
1&
b11 /
1?
1D
b1100 I
b1011 }
#680000
0!
0?
#685000
1!
1#
b1011 $
1?
1A
b1011 B
b1101 I
1J
1]
b1101 ^
#690000
0!
0?
#695000
1!
0#
1)
b1 *
b1101 +
1?
0A
b1101 I
0J
b1101 K
b1 L
1M
0]
b1101 _
b1 `
1a
b1 e
b1000 f
b1101 w
#700000
0!
0?
#705000
1!
1?
b101 }
#710000
0!
0?
#715000
1!
1#
b101 $
1?
1A
b101 B
b101 I
1J
1]
b101 ^
#720000
0!
0?
#725000
1!
0#
b10 *
b1011101 +
1?
0A
b101 I
0J
b1011101 K
b10 L
0]
b1011101 _
b10 `
b10 e
b1000 f
#730000
0!
0?
#735000
1!
1?
b1100 }
#740000
0!
0?
#745000
1!
1#
b1100 $
1?
1A
b1100 B
b1100 I
1J
1]
b1100 ^
#750000
0!
0?
#755000
1!
0#
1?
0A
b1100 I
0J
1P
0]
1d
#760000
0!
0?
#765000
1!
1?
b1 q
b1 s
b101 w
b0 ~
#770000
0!
0?
#775000
1!
1?
b101 r
b10 s
b0 w
b1 ~
#780000
0!
0?
#785000
1!
1?
b10 q
b1010000000000000000 r
b10 ~
#790000
0!
0?
#795000
1!
1?
b11111111111110110000000000000000 Q
1R
b11111111111110110000000000000000 o
1p
b0 q
b1010000000000000000 v
b11 ~
#800000
0!
0?
#805000
1!
b11111111111110110000000000000000 -
1.
1?
b11111111111110110000000000000000 F
1G
0R
0p
b1 q
b0 r
b1 s
b101 w
b100 ~
#810000
0!
0?
#815000
1!
r-5 !!
1"
b11111111111110110000000000000000 "!
r-5 #!
r-5 $!
0&
r-5 &!
r0 '!
0)
b0 *
b0 +
b0 -
0.
b11 0
1?
1@
0D
b0 F
0G
0H
b1100 I
b0 K
b0 L
0M
0P
b0 Q
0\
b0 _
b0 `
0a
0d
b0 e
b1000 f
b0 o
b0 q
b0 r
b0 s
b0 v
b0 w
b110011 ~
#820000
0!
0?
#825000
1!
1?
b1000 f
#830000
0!
0?
#835000
1!
1?
b1000 f
#840000
0!
0?
#845000
1!
1?
b1000 f
#850000
0!
0?
#855000
1!
1?
b1000 f
#860000
0!
0?
#865000
1!
0"
1?
0@
1H
1\
b1000 f
#870000
0!
0?
#875000
1!
1?
#880000
0!
0?
#885000
1!
1?
#890000
0!
0?
#895000
1!
1?
#900000
0!
0?
#905000
1!
1?
#910000
0!
0?
#915000
1!
1&
b100 /
1?
1D
b1100 I
b1011 }
#920000
0!
0?
#925000
1!
1#
b1011 $
1?
1A
b1011 B
b1101 I
1J
1]
b1101 ^
#930000
0!
0?
#935000
1!
0#
1)
b1 *
b1101 +
1?
0A
b1101 I
0J
b1101 K
b1 L
1M
0]
b1101 _
b1 `
1a
b1 e
b1000 f
b1101 w
#940000
0!
0?
#945000
1!
1?
b1 }
#950000
0!
0?
#955000
1!
1#
b1 $
1?
1A
b1 B
b1 I
1J
1]
b1 ^
#960000
0!
0?
#965000
1!
0#
b10 *
b11101 +
1?
0A
b1 I
0J
b11101 K
b10 L
0]
b11101 _
b10 `
b10 e
b1000 f
#970000
0!
0?
#975000
1!
1?
b10 }
#980000
0!
0?
#985000
1!
1#
b10 $
1?
1A
b10 B
b10 I
1J
1]
b10 ^
#990000
0!
0?
#995000
1!
0#
b11 *
b1000011101 +
1?
0A
b10 I
0J
b1000011101 K
b11 L
0]
b1000011101 _
b11 `
b11 e
b1000 f
