FDP/FDP.sim/sim_1/behav/xsim/arithmetic_bcd_to_fp_tb.vcd
$date
   Tue Oct 21 18:57:13 2025
$end
$version
  2018.2
$end
$timescale
  1ps
$end
$scope module tb_arithmetic_bcd_to_fp_input_system $end
$var reg 1 ! clk $end
$var reg 1 " reset $end
$var reg 1 # keypad_btn_pressed $end
$var reg 4 $ selected_keypad_value [3:0] $end
$var reg 1 % is_active_mode $end
$var reg 1 & enable_negative $end
$var reg 1 ' enable_backspace $end
$var wire 1 ( has_decimal $end
$var wire 1 ) has_negative $end
$var wire 4 * input_index [3:0] $end
$var wire 32 + bcd_value [31:0] $end
$var wire 4 , decimal_pos [3:0] $end
$var wire 32 - fp_value [31:0] $end
$var wire 1 . input_complete $end
$var integer 32 / test_num $end
$var integer 32 0 pass_count $end
$var integer 32 1 fail_count $end
$var parameter 4 2 KEY_0 [3:0] $end
$var parameter 4 3 KEY_1 [3:0] $end
$var parameter 4 4 KEY_2 [3:0] $end
$var parameter 4 5 KEY_3 [3:0] $end
$var parameter 4 6 KEY_4 [3:0] $end
$var parameter 4 7 KEY_5 [3:0] $end
$var parameter 4 8 KEY_6 [3:0] $end
$var parameter 4 9 KEY_7 [3:0] $end
$var parameter 4 : KEY_8 [3:0] $end
$var parameter 4 ; KEY_9 [3:0] $end
$var parameter 4 < KEY_DECIMAL [3:0] $end
$var parameter 4 = KEY_SPECIAL [3:0] $end
$var parameter 4 > KEY_ENTER [3:0] $end
$scope module dut $end
$var wire 1 ? clk $end
$var wire 1 @ reset $end
$var wire 1 A keypad_btn_pressed $end
$var wire 4 B selected_keypad_value [3:0] $end
$var wire 1 C is_active_mode $end
$var wire 1 D enable_negative $end
$var wire 1 E enable_backspace $end
$var wire 1 ( has_decimal $end
$var wire 1 ) has_negative $end
$var wire 4 * input_index [3:0] $end
$var wire 32 + bcd_value [31:0] $end
$var wire 4 , decimal_pos [3:0] $end
$var reg 32 F fp_value [31:0] $end
$var reg 1 G input_complete $end
$var wire 1 H system_enable $end
$var reg 4 I internal_key_code [3:0] $end
$var reg 1 J internal_key_valid $end
$var wire 32 K event_digit_data [31:0] $end
$var wire 4 L event_char_count [3:0] $end
$var wire 1 M event_sign_flag $end
$var wire 1 N event_dot_flag $end
$var wire 4 O event_dot_pos [3:0] $end
$var wire 1 P event_submission $end
$var wire 32 Q eval_result [31:0] $end
$var wire 1 R eval_complete $end
$var parameter 32 S DIGIT_CAPACITY [31:0] $end
$var parameter 32 T FIXED_FRAC_BITS [31:0] $end
$var parameter 4 U EXT_DECIMAL [3:0] $end
$var parameter 4 V EXT_SPECIAL [3:0] $end
$var parameter 4 W EXT_CHECKMARK [3:0] $end
$var parameter 4 X INT_DECIMAL [3:0] $end
$var parameter 4 Y INT_BACKSPACE [3:0] $end
$var parameter 4 Z INT_ENTER [3:0] $end
$var parameter 4 [ INT_NEGATIVE [3:0] $end
$scope module event_dispatcher $end
$var wire 1 ? clk $end
$var wire 1 \ rst_n $end
$var wire 1 C active $end
$var wire 1 ] cmd_valid $end
$var wire 4 ^ cmd_type [3:0] $end
$var wire 1 E enable_backspace_key $end
$var wire 1 D enable_negative_key $end
$var reg 32 _ packed_digits [31:0] $end
$var reg 4 ` total_chars [3:0] $end
$var reg 1 a sign_present $end
$var reg 1 b dot_present $end
$var reg 4 c dot_location [3:0] $end
$var reg 1 d submit_ready $end
$var reg 4 e write_ptr [3:0] $end
$var integer 32 f j $end
$var parameter 32 g BUFFER_SIZE [31:0] $end
$var parameter 3 h TYPE_DIGIT [2:0] $end
$var parameter 3 i TYPE_DOT [2:0] $end
$var parameter 3 j TYPE_SIGN [2:0] $end
$var parameter 4 k KEY_DOT [3:0] $end
$var parameter 4 l KEY_BACKSPACE [3:0] $end
$var parameter 4 m KEY_ENTER [3:0] $end
$var parameter 4 n KEY_NEGATIVE [3:0] $end
$upscope $end
$scope module event_processor $end
$var wire 1 ? clk $end
$var wire 1 H rst_n $end
$var wire 1 P trigger $end
$var wire 32 K digit_stream [31:0] $end
$var wire 4 L num_chars [3:0] $end
$var wire 1 M has_sign $end
$var wire 1 N has_dot $end
$var wire 4 O dot_idx [3:0] $end
$var reg 32 o result_fp [31:0] $end
$var reg 1 p ready $end
$var reg 2 q phase [1:0] $end
$var reg 32 r value_accum [31:0] $end
$var reg 4 s position [3:0] $end
$var reg 4 t scale_factor [3:0] $end
$var reg 32 u divisor [31:0] $end
$var reg 32 v temp_result [31:0] $end
$var wire 4 w current_digit [3:0] $end
$var parameter 32 x FRAC_WIDTH [31:0] $end
$var parameter 32 y MAX_VALUE [31:0] $end
$var parameter 2 z WAIT [1:0] $end
$var parameter 2 { EVALUATE [1:0] $end
$var parameter 2 | FINALIZE [1:0] $end
$upscope $end
$upscope $end
$scope task press_key $end
$var reg 4 } key [3:0] $end
$upscope $end
$scope task wait_for_complete $end
$var integer 32 ~ i $end
$upscope $end
$scope function fp_to_real $end
$var real 32 !! fp_to_real $end
$var reg 32 "! fp_val [31:0] $end
$var real 32 #! result $end
$upscope $end
$scope task check_result $end
$var real 32 $! expected $end
$var real 32 %! tolerance $end
$var real 32 &! actual $end
$var real 32 '! error $end
$upscope $end
$upscope $end
$enddefinitions $end
#0
$dumpvars
0!
r0 !!
1"
bx "!
0#
r0 #!
b0 $
r0 $!
1%
r0 %!
0&
r0 &!
0'
r0 '!
0(
0)
b0 *
b0 +
b1111 ,
b0 -
0.
b0 /
b0 0
b0 1
b0 2
b1 3
b10 4
b11 5
b100 6
b101 7
b110 8
b111 9
b1000 :
b1001 ;
b1010 <
b1011 =
b1100 >
0?
1@
0A
b0 B
1C
0D
0E
b0 F
0G
0H
b0 I
0J
b0 K
b0 L
0M
0N
b1111 O
0P
b0 Q
0R
b1000 S
b10000 T
b1010 U
b1011 V
b1100 W
b1010 X
b1011 Y
b1100 Z
b1101 [
0\
0]
b0 ^
b0 _
b0 `
0a
0b
b1111 c
0d
b0 e
b1000 f
b1000 g
b0 h
b1 i
b10 j
b1010 k
b1011 l
b1100 m
b1101 n
b0 o
0p
b0 q
b0 r
b0 s
b0 t
b1 u
b0 v
b0 w
b10000 x
b111111111111111 y
b0 z
b1 {
b10 |
bx }
bx ~
$end
#5000
1!
1?
b1000 f
#10000
0!
0?
#15000
1!
1?
b1000 f
#20000
0!
0?
#25000
1!
1?
b1000 f
#30000
0!
0?
#35000
1!
1?
b1000 f
#40000
0!
0?
#45000
1!
0"
1?
0@
1H
1\
b1000 f
#50000
0!
0?
#55000
1!
1?
#60000
0!
0?
#65000
1!
1?
#70000
0!
0?
#75000
1!
1?
#80000
0!
0?
#85000
1!
1?
#90000
0!
0?
#95000
1!
b1 /
1?
b1 }
#100000
0!
0?
#105000
1!
1#
b1 $
1?
1A
b1 B
b1 I
1J
1]
b1 ^
#110000
0!
0?
#115000
1!
0#
b1 *
b1 +
1?
0A
b1 I
0J
b1 K
b1 L
0]
b1 _
b1 `
b1 e
b1000 f
b1 w
#120000
0!
0?
#125000
1!
1?
b10 }
#130000
0!
0?
#135000
1!
1#
b10 $
1?
1A
b10 B
b10 I
1J
1]
b10 ^
#140000
0!
0?
#145000
1!
0#
b10 *
b100001 +
1?
0A
b10 I
0J
b100001 K
b10 L
0]
b100001 _
b10 `
b10 e
b1000 f
#150000
0!
0?
#155000
1!
1?
b1100 }
#160000
0!
0?
#165000
1!
1#
b1100 $
1?
1A
b1100 B
b1100 I
1J
1]
b1100 ^
#170000
0!
0?
#175000
1!
0#
1?
0A
b1100 I
0J
1P
0]
1d
#180000
0!
0?
#185000
1!
1?
b1 q
b0 ~
#190000
0!
0?
#195000
1!
1?
b1 r
b1 s
b10 w
b1 ~
#200000
0!
0?
#205000
1!
1?
b1100 r
b10 s
b0 w
b10 ~
#210000
0!
0?
#215000
1!
1?
b10 q
b11000000000000000000 r
b11 ~
#220000
0!
0?
#225000
1!
1?
b11000000000000000000 Q
1R
b11000000000000000000 o
1p
b0 q
b11000000000000000000 v
b100 ~
#230000
0!
0?
#235000
1!
b11000000000000000000 -
1.
1?
b11000000000000000000 F
1G
0R
0p
b1 q
b0 r
b0 s
b1 w
b101 ~
#240000
0!
0?
#245000
1!
r12 !!
1"
b11000000000000000000 "!
r12 #!
r12 $!
r0.01 %!
r12 &!
b0 *
b0 +
b0 -
0.
b1 0
1?
1@
b0 F
0G
0H
b0 K
b0 L
0P
b0 Q
0\
b0 _
b0 `
0d
b0 e
b1000 f
b0 o
b0 q
b0 r
b0 s
b0 v
b0 w
b110011 ~
#250000
0!
0?
#255000
1!
1?
b1000 f
#260000
0!
0?
#265000
1!
1?
b1000 f
#270000
0!
0?
#275000
1!
1?
b1000 f
#280000
0!
0?
#285000
1!
1?
b1000 f
#290000
0!
0?
#295000
1!
0"
1?
0@
1H
1\
b1000 f
#300000
0!
0?
#305000
1!
1?
#310000
0!
0?
#315000
1!
1?
#320000
0!
0?
#325000
1!
1?
#330000
0!
0?
#335000
1!
1?
#340000
0!
0?
#345000
1!
b10 /
1?
b11 }
#350000
0!
0?
#355000
1!
1#
b11 $
1?
1A
b11 B
b11 I
1J
1]
b11 ^
#360000
0!
0?
#365000
1!
0#
b1 *
b11 +
1?
0A
b11 I
0J
b11 K
b1 L
0]
b11 _
b1 `
b1 e
b1000 f
b11 w
#370000
0!
0?
#375000
1!
1?
b1010 }
#380000
0!
0?
#385000
1!
1#
b1010 $
1?
1A
b1010 B
b1010 I
1J
1]
b1010 ^
#390000
0!
0?
#395000
1!
0#
1(
b10 *
b10100011 +
b1 ,
1?
0A
b1010 I
0J
b10100011 K
b10 L
1N
b1 O
0]
b10100011 _
b10 `
1b
b1 c
b10 e
b1000 f
#400000
0!
0?
#405000
1!
1?
b1 }
#410000
0!
0?
#415000
1!
1#
b1 $
1?
1A
b1 B
b1 I
1J
1]
b1 ^
#420000
0!
0?
#425000
1!
0#
b11 *
b110100011 +
1?
0A
b1 I
0J
b110100011 K
b11 L
0]
b110100011 _
b11 `
b11 e
b1000 f
#430000
0!
0?
#435000
1!
1?
b100 }
#440000
0!
0?
#445000
1!
1#
b100 $
1?
1A
b100 B
b100 I
1J
1]
b100 ^
#450000
0!
0?
#455000
1!
0#
b100 *
b100000110100011 +
1?
0A
b100 I
0J
b100000110100011 K
b100 L
0]
b100000110100011 _
b100 `
b100 e
b1000 f
#460000
0!
0?
#465000
1!
1?
b1100 }
#470000
0!
0?
#475000
1!
1#
b1100 $
1?
1A
b1100 B
b1100 I
1J
1]
b1100 ^
#480000
0!
0?
#485000
1!
0#
1?
0A
b1100 I
0J
1P
0]
1d
#490000
0!
0?
#495000
1!
1?
b1 q
b0 ~
#500000
0!
0?
#505000
1!
1?
b11 r
b1 s
b1010 w
b1 ~
#510000
0!
0?
#515000
1!
1?
b110000000000000000 r
b10 s
b1010 u
b1 w
b10 ~
#520000
0!
0?
#525000
1!
1?
b110001100110011001 r
b11 s
b1100100 u
b100 w
b11 ~
#530000
0!
0?
#535000
1!
1?
b110010001111010110 r
b100 s
b1111101000 u
b0 w
b100 ~
#540000
0!
0?
#545000
1!
1?
b10 q
b101 ~
#550000
0!
0?
#555000
1!
1?
b110010001111010110 Q
1R
b110010001111010110 o
1p
b0 q
b110010001111010110 v
b110 ~
#560000
0!
0?
#565000
1!
b110010001111010110 -
1.
1?
b110010001111010110 F
1G
0R
0p
b1 q
b0 r
b0 s
b1 u
b11 w
b111 ~
#570000
0!
0?
#575000
1!
r3.139984130859375 !!
1"
b110010001111010110 "!
r3.139984130859375 #!
r3.14 $!
r3.139984130859375 &!
r1.586914062512434e-05 '!
0(
b0 *
b0 +
b1111 ,
b0 -
0.
b10 0
1?
1@
b0 F
0G
0H
b0 K
b0 L
0N
b1111 O
0P
b0 Q
0\
b0 _
b0 `
0b
b1111 c
0d
b0 e
b1000 f
b0 o
b0 q
b0 r
b0 s
b0 v
b0 w
b110011 ~
#580000
0!
0?
#585000
1!
1?
b1000 f
#590000
0!
0?
#595000
1!
1?
b1000 f
#600000
0!
0?
#605000
1!
1?
b1000 f
#610000
0!
0?
#615000
1!
1?
b1000 f
#620000
0!
0?
#625000
1!
0"
1?
0@
1H
1\
b1000 f
#630000
0!
0?
#635000
1!
1?
#640000
0!
0?
#645000
1!
1?
#650000
0!
0?
#655000
1!
1?
#660000
0!
0?
#665000
1!
1?
#670000
0!
0?
#675000
1!
1&
b11 /
1?
1D
b1100 I
b1011 }
#680000
0!
0?
#685000
1!
1#
b1011 $
1?
1A
b1011 B
b1101 I
1J
1]
b1101 ^
#690000
0!
0?
#695000
1!
0#
1)
b1 *
b1101 +
1?
0A
b1101 I
0J
b1101 K
b1 L
1M
0]
b1101 _
b1 `
1a
b1 e
b1000 f
b1101 w
#700000
0!
0?
#705000
1!
1?
b101 }
#710000
0!
0?
#715000
1!
1#
b101 $
1?
1A
b101 B
b101 I
1J
1]
b101 ^
#720000
0!
0?
#725000
1!
0#
b10 *
b1011101 +
1?
0A
b101 I
0J
b1011101 K
b10 L
0]
b1011101 _
b10 `
b10 e
b1000 f
#730000
0!
0?
#735000
1!
1?
b1100 }
#740000
0!
0?
#745000
1!
1#
b1100 $
1?
1A
b1100 B
b1100 I
1J
1]
b1100 ^
#750000
0!
0?
#755000
1!
0#
1?
0A
b1100 I
0J
1P
0]
1d
#760000
0!
0?
#765000
1!
1?
b1 q
b1 s
b101 w
b0 ~
#770000
0!
0?
#775000
1!
1?
b101 r
b10 s
b0 w
b1 ~
#780000
0!
0?
#785000
1!
1?
b10 q
b1010000000000000000 r
b10 ~
#790000
0!
0?
#795000
1!
1?
b11111111111110110000000000000000 Q
1R
b11111111111110110000000000000000 o
1p
b0 q
b1010000000000000000 v
b11 ~
#800000
0!
0?
#805000
1!
b11111111111110110000000000000000 -
1.
1?
b11111111111110110000000000000000 F
1G
0R
0p
b1 q
b0 r
b1 s
b101 w
b100 ~
#810000
0!
0?
#815000
1!
r-5 !!
1"
b11111111111110110000000000000000 "!
r-5 #!
r-5 $!
0&
r-5 &!
r0 '!
0)
b0 *
b0 +
b0 -
0.
b11 0
1?
1@
0D
b0 F
0G
0H
b1100 I
b0 K
b0 L
0M
0P
b0 Q
0\
b0 _
b0 `
0a
0d
b0 e
b1000 f
b0 o
b0 q
b0 r
b0 s
b0 v
b0 w
b110011 ~
#820000
0!
0?
#825000
1!
1?
b1000 f
#830000
0!
0?
#835000
1!
1?
b1000 f
#840000
0!
0?
#845000
1!
1?
b1000 f
#850000
0!
0?
#855000
1!
1?
b1000 f
#860000
0!
0?
#865000
1!
0"
1?
0@
1H
1\
b1000 f
#870000
0!
0?
#875000
1!
1?
#880000
0!
0?
#885000
1!
1?
#890000
0!
0?
#895000
1!
1?
#900000
0!
0?
#905000
1!
1?
#910000
0!
0?
#915000
1!
1&
b100 /
1?
1D
b1100 I
b1011 }
#920000
0!
0?
#925000
1!
1#
b1011 $
1?
1A
b1011 B
b1101 I
1J
1]
b1101 ^
#930000
0!
0?
#935000
1!
0#
1)
b1 *
b1101 +
1?
0A
b1101 I
0J
b1101 K
b1 L
1M
0]
b1101 _
b1 `
1a
b1 e
b1000 f
b1101 w
#940000
0!
0?
#945000
1!
1?
b1 }
#950000
0!
0?
#955000
1!
1#
b1 $
1?
1A
b1 B
b1 I
1J
1]
b1 ^
#960000
0!
0?
#965000
1!
0#
b10 *
b11101 +
1?
0A
b1 I
0J
b11101 K
b10 L
0]
b11101 _
b10 `
b10 e
b1000 f
#970000
0!
0?
#975000
1!
1?
b10 }
#980000
0!
0?
#985000
1!
1#
b10 $
1?
1A
b10 B
b10 I
1J
1]
b10 ^
#990000
0!
0?
#995000
1!
0#
b11 *
b1000011101 +
1?
0A
b10 I
0J
b1000011101 K
b11 L
0]
b1000011101 _
b11 `
b11 e
b1000 f
#1000000
0!
0?
#1005000
1!
1?
b1010 }
#1010000
0!
0?
#1015000
1!
1#
b1010 $
1?
1A
b1010 B
b1010 I
1J
1]
b1010 ^
#1020000
0!
0?
#1025000
1!
0#
1(
b100 *
b1010001000011101 +
b11 ,
1?
0A
b1010 I
0J
b1010001000011101 K
b100 L
1N
b11 O
0]
b1010001000011101 _
b100 `
1b
b11 c
b100 e
b1000 f
#1030000
0!
0?
#1035000
1!
1?
b101 }
#1040000
0!
0?
#1045000
1!
1#
b101 $
1?
1A
b101 B
b101 I
1J
1]
b101 ^
#1050000
0!
0?
#1055000
1!
0#
b101 *
b1011010001000011101 +
1?
0A
b101 I
0J
b1011010001000011101 K
b101 L
0]
b1011010001000011101 _
b101 `
b101 e
b1000 f
#1060000
0!
0?
#1065000
1!
1?
b1100 }
#1070000
0!
0?
#1075000
1!
1#
b1100 $
1?
1A
b1100 B
b1100 I
1J
1]
b1100 ^
#1080000
0!
0?
#1085000
1!
0#
1?
0A
b1100 I
0J
1P
0]
1d
#1090000
0!
0?
#1095000
1!
1?
b1 q
b1 s
b1 w
b0 ~
#1100000
0!
0?
#1105000
1!
1?
b1 r
b10 s
b10 w
b1 ~
#1110000
0!
0?
#1115000
1!
1?
b1100 r
b11 s
b1010 w
b10 ~
#1120000
0!
0?
#1125000
1!
1?
b11000000000000000000 r
b100 s
b1010 u
b101 w
b11 ~
#1130000
0!
0?
#1135000
1!
1?
b11001000000000000000 r
b101 s
b1100100 u
b0 w
b100 ~
#1140000
0!
0?
#1145000
1!
1?
b10 q
b101 ~
#1150000
0!
0?
#1155000
1!
1?
b11111111111100111000000000000000 Q
1R
b11111111111100111000000000000000 o
1p
b0 q
b11001000000000000000 v
b110 ~
#1160000
0!
0?
#1165000
1!
b11111111111100111000000000000000 -
1.
1?
b11111111111100111000000000000000 F
1G
0R
0p
b1 q
b0 r
b1 s
b1 u
b1 w
b111 ~
#1170000
0!
0?
#1175000
1!
r-12.5 !!
1"
b11111111111100111000000000000000 "!
r-12.5 #!
r-12.5 $!
0&
r-12.5 &!
0(
0)
b0 *
b0 +
b1111 ,
b0 -
0.
b100 0
1?
1@
0D
b0 F
0G
0H
b1100 I
b0 K
b0 L
0M
0N
b1111 O
0P
b0 Q
0\
b0 _
b0 `
0a
0b
b1111 c
0d
b0 e
b1000 f
b0 o
b0 q
b0 r
b0 s
b0 v
b0 w
b110011 ~
#1180000
0!
0?
#1185000
1!
1?
b1000 f
#1190000
0!
0?
#1195000
1!
1?
b1000 f
#1200000
0!
0?
#1205000
1!
1?
b1000 f
#1210000
0!
0?
#1215000
1!
1?
b1000 f
#1220000
0!
0?
#1225000
1!
0"
1?
0@
1H
1\
b1000 f
#1230000
0!
0?
#1235000
1!
1?
#1240000
0!
0?
#1245000
1!
1?
#1250000
0!
0?
#1255000
1!
1?
#1260000
0!
0?
#1265000
1!
1?
#1270000
0!
0?
#1275000
1!
1'
b101 /
1?
1E
b1100 I
b1 }
#1280000
0!
0?
#1285000
1!
1#
b1 $
1?
1A
b1 B
b1 I
1J
1]
b1 ^
#1290000
0!
0?
#1295000
1!
0#
b1 *
b1 +
1?
0A
b1 I
0J
b1 K
b1 L
0]
b1 _
b1 `
b1 e
b1000 f
b1 w
#1300000
0!
0?
#1305000
1!
1?
b10 }
#1310000
0!
0?
#1315000
1!
1#
b10 $
1?
1A
b10 B
b10 I
1J
1]
b10 ^
#1320000
0!
0?
#1325000
1!
0#
b10 *
b100001 +
1?
0A
b10 I
0J
b100001 K
b10 L
0]
b100001 _
b10 `
b10 e
b1000 f
#1330000
0!
0?
#1335000
1!
1?
b11 }
#1340000
0!
0?
#1345000
1!
1#
b11 $
1?
1A
b11 B
b11 I
1J
1]
b11 ^
#1350000
0!
0?
#1355000
1!
0#
b11 *
b1100100001 +
1?
0A
b11 I
0J
b1100100001 K
b11 L
0]
b1100100001 _
b11 `
b11 e
b1000 f
#1360000
0!
0?
#1365000
1!
1?
b1011 }
#1370000
0!
0?
#1375000
1!
1#
b1011 $
1?
1A
b1011 B
b1011 I
1J
1]
b1011 ^
#1380000
0!
0?
#1385000
1!
0#
b10 *
b100001 +
1?
0A
b1011 I
0J
b100001 K
b10 L
0]
b100001 _
b10 `
b10 e
b1000 f
#1390000
0!
0?
#1395000
1!
1?
b1100 }
#1400000
0!
0?
#1405000
1!
1#
b1100 $
1?
1A
b1100 B
b1100 I
1J
1]
b1100 ^
#1410000
0!
0?
#1415000
1!
0#
1?
0A
b1100 I
0J
1P
0]
1d
#1420000
0!
0?
#1425000
1!
1?
b1 q
b0 ~
#1430000
0!
0?
#1435000
1!
1?
b1 r
b1 s
b10 w
b1 ~
#1440000
0!
0?
#1445000
1!
1?
b1100 r
b10 s
b0 w
b10 ~
#1450000
0!
0?
#1455000
1!
1?
b10 q
b11000000000000000000 r
b11 ~
#1460000
0!
0?
#1465000
1!
1?
b11000000000000000000 Q
1R
b11000000000000000000 o
1p
b0 q
b11000000000000000000 v
b100 ~
#1470000
0!
0?
#1475000
1!
b11000000000000000000 -
1.
1?
b11000000000000000000 F
1G
0R
0p
b1 q
b0 r
b0 s
b1 w
b101 ~
#1480000
0!
0?
#1485000
1!
r12 !!
1"
b11000000000000000000 "!
r12 #!
r12 $!
r12 &!
0'
b0 *
b0 +
b0 -
0.
b101 0
1?
1@
0E
b0 F
0G
0H
b1100 I
b0 K
b0 L
0P
b0 Q
0\
b0 _
b0 `
0d
b0 e
b1000 f
b0 o
b0 q
b0 r
b0 s
b0 v
b0 w
b110011 ~
#1490000
0!
0?
#1495000
1!
1?
b1000 f
#1500000
0!
0?
#1505000
1!
1?
b1000 f
#1510000
0!
0?
#1515000
1!
1?
b1000 f
#1520000
0!
0?
#1525000
1!
1?
b1000 f
#1530000
0!
0?
#1535000
1!
0"
1?
0@
1H
1\
b1000 f
#1540000
0!
0?
#1545000
1!
1?
#1550000
0!
0?
#1555000
1!
1?
#1560000
0!
0?
#1565000
1!
1?
#1570000
0!
0?
#1575000
1!
1?
#1580000
0!
0?
#1585000
1!
b110 /
1?
b0 }
#1590000
0!
0?
#1595000
1!
1#
b0 $
1?
1A
b0 B
b0 I
1J
1]
b0 ^
#1600000
0!
0?
#1605000
1!
0#
b1 *
1?
0A
b0 I
0J
b1 L
0]
b1 `
b1 e
#1610000
0!
0?
#1615000
1!
1?
b1010 }
#1620000
0!
0?
#1625000
1!
1#
b1010 $
1?
1A
b1010 B
b1010 I
1J
1]
b1010 ^
#1630000
0!
0?
#1635000
1!
0#
1(
b10 *
b10100000 +
b1 ,
1?
0A
b1010 I
0J
b10100000 K
b10 L
1N
b1 O
0]
b10100000 _
b10 `
1b
b1 c
b10 e
b1000 f
#1640000
0!
0?
#1645000
1!
1?
b101 }
#1650000
0!
0?
#1655000
1!
1#
b101 $
1?
1A
b101 B
b101 I
1J
1]
b101 ^
#1660000
0!
0?
#1665000
1!
0#
b11 *
b10110100000 +
1?
0A
b101 I
0J
b10110100000 K
b11 L
0]
b10110100000 _
b11 `
b11 e
b1000 f
#1670000
0!
0?
#1675000
1!
1?
b1100 }
#1680000
0!
0?
#1685000
1!
1#
b1100 $
1?
1A
b1100 B
b1100 I
1J
1]
b1100 ^
#1690000
0!
0?
#1695000
1!
0#
1?
0A
b1100 I
0J
1P
0]
1d
#1700000
0!
0?
#1705000
1!
1?
b1 q
b0 ~
#1710000
0!
0?
#1715000
1!
1?
b1 s
b1010 w
b1 ~
#1720000
0!
0?
#1725000
1!
1?
b10 s
b1010 u
b101 w
b10 ~
#1730000
0!
0?
#1735000
1!
1?
b1000000000000000 r
b11 s
b1100100 u
b0 w
b11 ~
#1740000
0!
0?
#1745000
1!
1?
b10 q
b100 ~
#1750000
0!
0?
#1755000
1!
1?
b1000000000000000 Q
1R
b1000000000000000 o
1p
b0 q
b1000000000000000 v
b101 ~
#1760000
0!
0?
#1765000
1!
b1000000000000000 -
1.
1?
b1000000000000000 F
1G
0R
0p
b1 q
b0 r
b0 s
b1 u
b110 ~
#1770000
0!
0?
#1775000
1!
r0.5 !!
1"
b1000000000000000 "!
r0.5 #!
r0.5 $!
r0.5 &!
0(
b0 *
b0 +
b1111 ,
b0 -
0.
b110 0
1?
1@
b0 F
0G
0H
b0 K
b0 L
0N
b1111 O
0P
b0 Q
0\
b0 _
b0 `
0b
b1111 c
0d
b0 e
b1000 f
b0 o
b0 q
b0 s
b0 v
b110011 ~
#1780000
0!
0?
#1785000
1!
1?
b1000 f
#1790000
0!
0?
#1795000
1!
1?
b1000 f
#1800000
0!
0?
#1805000
1!
1?
b1000 f
#1810000
0!
0?
#1815000
1!
1?
b1000 f
#1820000
0!
0?
#1825000
1!
0"
1?
0@
1H
1\
b1000 f
#1830000
0!
0?
#1835000
1!
1?
#1840000
0!
0?
#1845000
1!
1?
#1850000
0!
0?
#1855000
1!
1?
#1860000
0!
0?
#1865000
1!
1?
#1870000
0!
0?
#1875000
1!
b111 /
1?
b1001 }
#1880000
0!
0?
#1885000
1!
1#
b1001 $
1?
1A
b1001 B
b1001 I
1J
1]
b1001 ^
#1890000
0!
0?
#1895000
1!
0#
b1 *
b1001 +
1?
0A
b1001 I
0J
b1001 K
b1 L
0]
b1001 _
b1 `
b1 e
b1000 f
b1001 w
#1900000
0!
0?
#1905000
1!
1?
#1910000
0!
0?
#1915000
1!
1#
b1001 $
1?
1A
b1001 I
1J
1]
#1920000
0!
0?
#1925000
1!
0#
b10 *
b10011001 +
1?
0A
b1001 I
0J
b10011001 K
b10 L
0]
b10011001 _
b10 `
b10 e
b1000 f
#1930000
0!
0?
#1935000
1!
1?
#1940000
0!
0?
#1945000
1!
1#
b1001 $
1?
1A
b1001 I
1J
1]
#1950000
0!
0?
#1955000
1!
0#
b11 *
b100110011001 +
1?
0A
b1001 I
0J
b100110011001 K
b11 L
0]
b100110011001 _
b11 `
b11 e
b1000 f
#1960000
0!
0?
#1965000
1!
1?
#1970000
0!
0?
#1975000
1!
1#
b1001 $
1?
1A
b1001 I
1J
1]
#1980000
0!
0?
#1985000
1!
0#
b100 *
b1001100110011001 +
1?
0A
b1001 I
0J
b1001100110011001 K
b100 L
0]
b1001100110011001 _
b100 `
b100 e
b1000 f
#1990000
0!
0?
#1995000
1!
1?
b1100 }
#2000000
0!
0?
#2005000
1!
1#
b1100 $
1?
1A
b1100 B
b1100 I
1J
1]
b1100 ^
#2010000
0!
0?
#2015000
1!
0#
1?
0A
b1100 I
0J
1P
0]
1d
#2020000
0!
0?
#2025000
1!
1?
b1 q
b0 ~
#2030000
0!
0?
#2035000
1!
1?
b1001 r
b1 s
b1 ~
#2040000
0!
0?
#2045000
1!
1?
b1100011 r
b10 s
b10 ~
#2050000
0!
0?
#2055000
1!
1?
b1111100111 r
b11 s
b11 ~
#2060000
0!
0?
#2065000
1!
1?
b10011100001111 r
b100 s
b0 w
b100 ~
#2070000
0!
0?
#2075000
1!
1?
b10 q
b100111000011110000000000000000 r
b101 ~
#2080000
0!
0?
#2085000
1!
1?
b100111000011110000000000000000 Q
1R
b100111000011110000000000000000 o
1p
b0 q
b100111000011110000000000000000 v
b110 ~
#2090000
0!
0?
#2095000
1!
b100111000011110000000000000000 -
1.
1?
b100111000011110000000000000000 F
1G
0R
0p
b1 q
b0 r
b0 s
b1001 w
b111 ~
#2100000
0!
0?
#2105000
1!
r9999 !!
1"
b100111000011110000000000000000 "!
r9999 #!
r9999 $!
r9999 &!
b0 *
b0 +
b0 -
0.
b111 0
1?
1@
b0 F
0G
0H
b0 K
b0 L
0P
b0 Q
0\
b0 _
b0 `
0d
b0 e
b1000 f
b0 o
b0 q
b0 r
b0 s
b0 v
b0 w
b110011 ~
#2110000
0!
0?
#2115000
1!
1?
b1000 f
#2120000
0!
0?
#2125000
1!
1?
b1000 f
#2130000
0!
0?
#2135000
1!
1?
b1000 f
#2140000
0!
0?
#2145000
1!
1?
b1000 f
#2150000
0!
0?
#2155000
1!
0"
1?
0@
1H
1\
b1000 f
#2160000
0!
0?
#2165000
1!
1?
#2170000
0!
0?
#2175000
1!
1?
#2180000
0!
0?
#2185000
1!
1?
#2190000
0!
0?
#2195000
1!
1?
#2200000
0!
0?
#2205000
1!
b1000 /
1?
b1 }
#2210000
0!
0?
#2215000
1!
1#
b1 $
1?
1A
b1 B
b1 I
1J
1]
b1 ^
#2220000
0!
0?
#2225000
1!
0#
b1 *
b1 +
1?
0A
b1 I
0J
b1 K
b1 L
0]
b1 _
b1 `
b1 e
b1000 f
b1 w
#2230000
0!
0?
#2235000
1!
1?
b1010 }
#2240000
0!
0?
#2245000
1!
1#
b1010 $
1?
1A
b1010 B
b1010 I
1J
1]
b1010 ^
#2250000
0!
0?
#2255000
1!
0#
1(
b10 *
b10100001 +
b1 ,
1?
0A
b1010 I
0J
b10100001 K
b10 L
1N
b1 O
0]
b10100001 _
b10 `
1b
b1 c
b10 e
b1000 f
#2260000
0!
0?
#2265000
1!
1?
b10 }
#2270000
0!
0?
#2275000
1!
1#
b10 $
1?
1A
b10 B
b10 I
1J
1]
b10 ^
#2280000
0!
0?
#2285000
1!
0#
b11 *
b1010100001 +
1?
0A
b10 I
0J
b1010100001 K
b11 L
0]
b1010100001 _
b11 `
b11 e
b1000 f
#2290000
0!
0?
#2295000
1!
1?
b11 }
#2300000
0!
0?
#2305000
1!
1#
b11 $
1?
1A
b11 B
b11 I
1J
1]
b11 ^
#2310000
0!
0?
#2315000
1!
0#
b100 *
b11001010100001 +
1?
0A
b11 I
0J
b11001010100001 K
b100 L
0]
b11001010100001 _
b100 `
b100 e
b1000 f
#2320000
0!
0?
#2325000
1!
1?
b100 }
#2330000
0!
0?
#2335000
1!
1#
b100 $
1?
1A
b100 B
b100 I
1J
1]
b100 ^
#2340000
0!
0?
#2345000
1!
0#
b101 *
b1000011001010100001 +
1?
0A
b100 I
0J
b1000011001010100001 K
b101 L
0]
b1000011001010100001 _
b101 `
b101 e
b1000 f
#2350000
0!
0?
#2355000
1!
1?
b1100 }
#2360000
0!
0?
